Untitled
…
2.5 Apresentar a mdia do IDHM_Educao de todos as UFs

## # A tibble: 27 x 2
##    uf    IDHM_Educacao
##    <fct>         <dbl>
##  1 DF            0.742
##  2 SP            0.676
##  3 SC            0.637
##  4 RJ            0.621
##  5 PR            0.611
##  6 RS            0.601
##  7 GO            0.596
##  8 ES            0.591
##  9 MT            0.577
## 10 MS            0.557
## # ... with 17 more rows
…
